%YAML 1.1
%TAG !u! tag:unity3d.com,2011:
--- !u!114 &-1941964775677221845
MonoBehaviour:
  m_ObjectHideFlags: 11
  m_CorrespondingSourceObject: {fileID: 0}
  m_PrefabInstance: {fileID: 0}
  m_PrefabAsset: {fileID: 0}
  m_GameObject: {fileID: 0}
  m_Enabled: 1
  m_EditorHideFlags: 0
  m_Script: {fileID: 11500000, guid: d0353a89b1f911e48b9e16bdc9f2e058, type: 3}
  m_Name: 
  m_EditorClassIdentifier: 
  version: 5
--- !u!21 &2100000
Material:
  serializedVersion: 8
  m_ObjectHideFlags: 0
  m_CorrespondingSourceObject: {fileID: 0}
  m_PrefabInstance: {fileID: 0}
  m_PrefabAsset: {fileID: 0}
  m_Name: PolyAdventureMaterial_Snow_01
  m_Shader: {fileID: 4800000, guid: 2a230514c860643f69b6a4d1871d3825, type: 3}
  m_ValidKeywords:
  - _DETAILMAPBLENDINGMODE_MULTIPLY
  - _EMISSION
  - _TEXTUREBLENDINGMODE_MULTIPLY
  m_InvalidKeywords: []
  m_LightmapFlags: 1
  m_EnableInstancingVariants: 0
  m_DoubleSidedGI: 0
  m_CustomRenderQueue: -1
  stringTagMap:
    RenderType: Opaque
  disabledShaderPasses:
  - SRPDEFAULTUNLIT
  m_SavedProperties:
    serializedVersion: 3
    m_TexEnvs:
    - _BakedGIRamp:
        m_Texture: {fileID: 0}
        m_Scale: {x: 1, y: 1}
        m_Offset: {x: 0, y: 0}
    - _BaseMap:
        m_Texture: {fileID: 2800000, guid: e917c51eb5f9a2c4db7c985c75a72d5e, type: 3}
        m_Scale: {x: 1, y: 1}
        m_Offset: {x: 0, y: 0}
    - _BumpMap:
        m_Texture: {fileID: 0}
        m_Scale: {x: 1, y: 1}
        m_Offset: {x: 0, y: 0}
    - _DetailAlbedoMap:
        m_Texture: {fileID: 0}
        m_Scale: {x: 1, y: 1}
        m_Offset: {x: 0, y: 0}
    - _DetailMap:
        m_Texture: {fileID: 0}
        m_Scale: {x: 1, y: 1}
        m_Offset: {x: 0, y: 0}
    - _DetailMask:
        m_Texture: {fileID: 0}
        m_Scale: {x: 1, y: 1}
        m_Offset: {x: 0, y: 0}
    - _DetailNormalMap:
        m_Texture: {fileID: 0}
        m_Scale: {x: 1, y: 1}
        m_Offset: {x: 0, y: 0}
    - _EmissionMap:
        m_Texture: {fileID: 0}
        m_Scale: {x: 1, y: 1}
        m_Offset: {x: 0, y: 0}
    - _GradientRamp:
        m_Texture: {fileID: 0}
        m_Scale: {x: 1, y: 1}
        m_Offset: {x: 0, y: 0}
    - _MainTex:
        m_Texture: {fileID: 2800000, guid: e917c51eb5f9a2c4db7c985c75a72d5e, type: 3}
        m_Scale: {x: 1, y: 1}
        m_Offset: {x: 0, y: 0}
    - _MetallicGlossMap:
        m_Texture: {fileID: 0}
        m_Scale: {x: 1, y: 1}
        m_Offset: {x: 0, y: 0}
    - _OcclusionMap:
        m_Texture: {fileID: 0}
        m_Scale: {x: 1, y: 1}
        m_Offset: {x: 0, y: 0}
    - _ParallaxMap:
        m_Texture: {fileID: 0}
        m_Scale: {x: 1, y: 1}
        m_Offset: {x: 0, y: 0}
    - _SpecGlossMap:
        m_Texture: {fileID: 0}
        m_Scale: {x: 1, y: 1}
        m_Offset: {x: 0, y: 0}
    - unity_Lightmaps:
        m_Texture: {fileID: 0}
        m_Scale: {x: 1, y: 1}
        m_Offset: {x: 0, y: 0}
    - unity_LightmapsInd:
        m_Texture: {fileID: 0}
        m_Scale: {x: 1, y: 1}
        m_Offset: {x: 0, y: 0}
    - unity_ShadowMasks:
        m_Texture: {fileID: 0}
        m_Scale: {x: 1, y: 1}
        m_Offset: {x: 0, y: 0}
    m_Ints: []
    m_Floats:
    - _AlphaClip: 0
    - _Blend: 0
    - _BumpScale: 1
    - _CameraDistanceImpact: 0.5
    - _ClearCoatMask: 0
    - _ClearCoatSmoothness: 0
    - _Cull: 2
    - _Cutoff: 0.5
    - _DetailAlbedoMapScale: 1
    - _DetailMapBlendingMode: 0
    - _DetailMapImpact: 0
    - _DetailNormalMapScale: 1
    - _DstBlend: 0
    - _EmissionScaleUI: 0
    - _EnvironmentReflections: 1
    - _FlatRimEdgeSmoothness: 0.5
    - _FlatRimLightAlign: 0
    - _FlatRimSize: 0.5
    - _FlatSpecularEdgeSmoothness: 0
    - _FlatSpecularSize: 0.1
    - _GlossMapScale: 1
    - _Glossiness: 0.2
    - _GlossyReflections: 1
    - _GradientAngle: 0
    - _GradientCenterX: 0
    - _GradientCenterY: 0
    - _GradientEnabled: 0
    - _GradientSize: 10
    - _LightContribution: 1
    - _LightmapDirectionPitch: 0
    - _LightmapDirectionYaw: 0
    - _Metallic: 0
    - _Mode: 0
    - _OcclusionStrength: 1
    - _OutlineDepthOffset: 0
    - _OutlineEnabled: 0
    - _OutlineScale: 1
    - _OutlineWidth: 1
    - _OverrideBakedGi: 0
    - _OverrideLightAttenuation: 0
    - _OverrideLightmapDir: 0
    - _Parallax: 0.02
    - _QueueOffset: 0
    - _ReceiveShadows: 1
    - _RimEnabled: 0
    - _SelfShadingSize: 0
    - _Smoothness: 0.2
    - _SmoothnessTextureChannel: 0
    - _SpecularEnabled: 0
    - _SpecularHighlights: 1
    - _SrcBlend: 1
    - _Surface: 0
    - _TextureBlendingMode: 0
    - _TextureImpact: 1
    - _UVSec: 0
    - _UnityShadowOcclusion: 0
    - _VertexColorsEnabled: 0
    - _WorkflowMode: 1
    - _ZWrite: 1
    m_Colors:
    - _BaseColor: {r: 1, g: 1, b: 1, a: 1}
    - _Color: {r: 1, g: 1, b: 1, a: 1}
    - _ColorGradient: {r: 0.85023, g: 0.85034, b: 0.8504499, a: 0.85056}
    - _DetailMapColor: {r: 1, g: 1, b: 1, a: 1}
    - _EmissionColor: {r: 0, g: 0, b: 0, a: 0}
    - _EmissionColorUI: {r: 1, g: 1, b: 1, a: 1}
    - _FlatRimColor: {r: 0.85023, g: 0.85034, b: 0.85045, a: 0.85056}
    - _FlatSpecularColor: {r: 0.85023, g: 0.85034, b: 0.85045, a: 0.85056}
    - _LightAttenuation: {r: 0, g: 1, b: 0, a: 0}
    - _LightmapDirection: {r: 0, g: 1, b: 0, a: 0}
    - _OutlineColor: {r: 1, g: 1, b: 1, a: 1}
    - _ShadowColor: {r: 0, g: 0, b: 0, a: 1}
    - _SpecColor: {r: 0.19999996, g: 0.19999996, b: 0.19999996, a: 1}
  m_BuildTextureStacks: []
