%YAML 1.1
%TAG !u! tag:unity3d.com,2011:
--- !u!1 &6738027821056247036
GameObject:
  m_ObjectHideFlags: 0
  m_CorrespondingSourceObject: {fileID: 0}
  m_PrefabInstance: {fileID: 0}
  m_PrefabAsset: {fileID: 0}
  serializedVersion: 6
  m_Component:
  - component: {fileID: 4472361956251034429}
  - component: {fileID: 2511074092174145046}
  - component: {fileID: 1311332564276157172}
  - component: {fileID: 1703293506652540367}
  m_Layer: 0
  m_Name: GasCan Interactable
  m_TagString: Untagged
  m_Icon: {fileID: 0}
  m_NavMeshLayer: 0
  m_StaticEditorFlags: 0
  m_IsActive: 1
--- !u!4 &4472361956251034429
Transform:
  m_ObjectHideFlags: 0
  m_CorrespondingSourceObject: {fileID: 0}
  m_PrefabInstance: {fileID: 0}
  m_PrefabAsset: {fileID: 0}
  m_GameObject: {fileID: 6738027821056247036}
  m_LocalRotation: {x: 0, y: 0, z: 0, w: 1}
  m_LocalPosition: {x: -20.78104, y: 0.809, z: 26.117748}
  m_LocalScale: {x: 1, y: 1, z: 1}
  m_ConstrainProportionsScale: 0
  m_Children:
  - {fileID: 3989892668276496204}
  m_Father: {fileID: 0}
  m_RootOrder: 0
  m_LocalEulerAnglesHint: {x: 0, y: 0, z: 0}
--- !u!114 &2511074092174145046
MonoBehaviour:
  m_ObjectHideFlags: 0
  m_CorrespondingSourceObject: {fileID: 0}
  m_PrefabInstance: {fileID: 0}
  m_PrefabAsset: {fileID: 0}
  m_GameObject: {fileID: 6738027821056247036}
  m_Enabled: 1
  m_EditorHideFlags: 0
  m_Script: {fileID: 11500000, guid: c67caf534f334071bf5dfec09f7408ca, type: 3}
  m_Name: 
  m_EditorClassIdentifier: 
  <OnInteract>k__BackingField:
    m_PersistentCalls:
      m_Calls: []
--- !u!114 &1311332564276157172
MonoBehaviour:
  m_ObjectHideFlags: 0
  m_CorrespondingSourceObject: {fileID: 0}
  m_PrefabInstance: {fileID: 0}
  m_PrefabAsset: {fileID: 0}
  m_GameObject: {fileID: 6738027821056247036}
  m_Enabled: 1
  m_EditorHideFlags: 0
  m_Script: {fileID: 11500000, guid: ac1ea5aed2974393b6857c2d9a6e96e9, type: 3}
  m_Name: 
  m_EditorClassIdentifier: 
  item: {fileID: 11400000, guid: 96cdc512039234577b4527dff7ad397d, type: 2}
--- !u!135 &1703293506652540367
SphereCollider:
  m_ObjectHideFlags: 0
  m_CorrespondingSourceObject: {fileID: 0}
  m_PrefabInstance: {fileID: 0}
  m_PrefabAsset: {fileID: 0}
  m_GameObject: {fileID: 6738027821056247036}
  m_Material: {fileID: 0}
  m_IsTrigger: 1
  m_Enabled: 1
  serializedVersion: 2
  m_Radius: 0.5
  m_Center: {x: 0, y: 0, z: 0}
--- !u!1001 &3985728356410626956
PrefabInstance:
  m_ObjectHideFlags: 0
  serializedVersion: 2
  m_Modification:
    m_TransformParent: {fileID: 4472361956251034429}
    m_Modifications:
    - target: {fileID: 1650363897259482, guid: 8c5db8a8d6ac2974a8dff60efea70b1f, type: 3}
      propertyPath: m_Name
      value: SM_Prop_GasCan_01
      objectReference: {fileID: 0}
    - target: {fileID: 4174762829989056, guid: 8c5db8a8d6ac2974a8dff60efea70b1f, type: 3}
      propertyPath: m_RootOrder
      value: 0
      objectReference: {fileID: 0}
    - target: {fileID: 4174762829989056, guid: 8c5db8a8d6ac2974a8dff60efea70b1f, type: 3}
      propertyPath: m_LocalScale.x
      value: 1.3712
      objectReference: {fileID: 0}
    - target: {fileID: 4174762829989056, guid: 8c5db8a8d6ac2974a8dff60efea70b1f, type: 3}
      propertyPath: m_LocalScale.y
      value: 1.3712
      objectReference: {fileID: 0}
    - target: {fileID: 4174762829989056, guid: 8c5db8a8d6ac2974a8dff60efea70b1f, type: 3}
      propertyPath: m_LocalScale.z
      value: 1.3712
      objectReference: {fileID: 0}
    - target: {fileID: 4174762829989056, guid: 8c5db8a8d6ac2974a8dff60efea70b1f, type: 3}
      propertyPath: m_LocalPosition.x
      value: 0
      objectReference: {fileID: 0}
    - target: {fileID: 4174762829989056, guid: 8c5db8a8d6ac2974a8dff60efea70b1f, type: 3}
      propertyPath: m_LocalPosition.y
      value: 0
      objectReference: {fileID: 0}
    - target: {fileID: 4174762829989056, guid: 8c5db8a8d6ac2974a8dff60efea70b1f, type: 3}
      propertyPath: m_LocalPosition.z
      value: 0
      objectReference: {fileID: 0}
    - target: {fileID: 4174762829989056, guid: 8c5db8a8d6ac2974a8dff60efea70b1f, type: 3}
      propertyPath: m_LocalRotation.w
      value: 0.9967553
      objectReference: {fileID: 0}
    - target: {fileID: 4174762829989056, guid: 8c5db8a8d6ac2974a8dff60efea70b1f, type: 3}
      propertyPath: m_LocalRotation.x
      value: -0
      objectReference: {fileID: 0}
    - target: {fileID: 4174762829989056, guid: 8c5db8a8d6ac2974a8dff60efea70b1f, type: 3}
      propertyPath: m_LocalRotation.y
      value: 0.08049168
      objectReference: {fileID: 0}
    - target: {fileID: 4174762829989056, guid: 8c5db8a8d6ac2974a8dff60efea70b1f, type: 3}
      propertyPath: m_LocalRotation.z
      value: -0
      objectReference: {fileID: 0}
    - target: {fileID: 4174762829989056, guid: 8c5db8a8d6ac2974a8dff60efea70b1f, type: 3}
      propertyPath: m_LocalEulerAnglesHint.x
      value: 0
      objectReference: {fileID: 0}
    - target: {fileID: 4174762829989056, guid: 8c5db8a8d6ac2974a8dff60efea70b1f, type: 3}
      propertyPath: m_LocalEulerAnglesHint.y
      value: 9.234
      objectReference: {fileID: 0}
    - target: {fileID: 4174762829989056, guid: 8c5db8a8d6ac2974a8dff60efea70b1f, type: 3}
      propertyPath: m_LocalEulerAnglesHint.z
      value: 0
      objectReference: {fileID: 0}
    - target: {fileID: 23679323853340750, guid: 8c5db8a8d6ac2974a8dff60efea70b1f,
        type: 3}
      propertyPath: m_Materials.Array.data[0]
      value: 
      objectReference: {fileID: 2100000, guid: 5a26128c371fe48b49ca7746beeece15, type: 2}
    - target: {fileID: 64486381613351646, guid: 8c5db8a8d6ac2974a8dff60efea70b1f,
        type: 3}
      propertyPath: m_Enabled
      value: 0
      objectReference: {fileID: 0}
    m_RemovedComponents: []
  m_SourcePrefab: {fileID: 100100000, guid: 8c5db8a8d6ac2974a8dff60efea70b1f, type: 3}
--- !u!4 &3989892668276496204 stripped
Transform:
  m_CorrespondingSourceObject: {fileID: 4174762829989056, guid: 8c5db8a8d6ac2974a8dff60efea70b1f,
    type: 3}
  m_PrefabInstance: {fileID: 3985728356410626956}
  m_PrefabAsset: {fileID: 0}
