%YAML 1.1
%TAG !u! tag:unity3d.com,2011:
--- !u!114 &11400000
MonoBehaviour:
  m_ObjectHideFlags: 0
  m_CorrespondingSourceObject: {fileID: 0}
  m_PrefabInstance: {fileID: 0}
  m_PrefabAsset: {fileID: 0}
  m_GameObject: {fileID: 0}
  m_Enabled: 1
  m_EditorHideFlags: 0
  m_Script: {fileID: 11500000, guid: 6ad55bcef22840bca6f3c112fc52dec4, type: 3}
  m_Name: AngryFarmer In Shock
  m_EditorClassIdentifier: 
  <sprite>k__BackingField: {fileID: 21300000, guid: 63cf7dd32819a4d27bcb52a9c971cd5d,
    type: 3}
  <name>k__BackingField: Shocked farmer
  <lines>k__BackingField:
  - Omg, Richard!! What have you done?
  - That fence was freshly painted!!
