%YAML 1.1
%TAG !u! tag:unity3d.com,2011:
--- !u!114 &11400000
MonoBehaviour:
  m_ObjectHideFlags: 0
  m_CorrespondingSourceObject: {fileID: 0}
  m_PrefabInstance: {fileID: 0}
  m_PrefabAsset: {fileID: 0}
  m_GameObject: {fileID: 0}
  m_Enabled: 1
  m_EditorHideFlags: 0
  m_Script: {fileID: 11500000, guid: 6ad55bcef22840bca6f3c112fc52dec4, type: 3}
  m_Name: Lenny the Owl
  m_EditorClassIdentifier: 
  <sprite>k__BackingField: {fileID: 21300000, guid: 88841e181f60748d79cd9df4cdbfad56,
    type: 3}
  <name>k__BackingField: Lenny the Owl
  <lines>k__BackingField:
  - Hoot hoot
  - Theres something in the Ice
  - Hoot hoot
