%YAML 1.1
%TAG !u! tag:unity3d.com,2011:
--- !u!114 &11400000
MonoBehaviour:
  m_ObjectHideFlags: 0
  m_CorrespondingSourceObject: {fileID: 0}
  m_PrefabInstance: {fileID: 0}
  m_PrefabAsset: {fileID: 0}
  m_GameObject: {fileID: 0}
  m_Enabled: 1
  m_EditorHideFlags: 0
  m_Script: {fileID: 11500000, guid: b1f6cc98fe0d4ebba7b2b8da43df7207, type: 3}
  m_Name: Axe
  m_EditorClassIdentifier: 
  serializationData:
    SerializedFormat: 2
    SerializedBytes: 
    ReferencedUnityObjects: []
    SerializedBytesString: 
    Prefab: {fileID: 0}
    PrefabModificationsReferencedUnityObjects: []
    PrefabModifications: []
    SerializationNodes:
    - Name: onPlayerDeathConsequences
      Entry: 7
      Data: 0|System.Collections.Generic.List`1[[roots.ItemRelated.InteractConsequences,
        Roots]], mscorlib
    - Name: 
      Entry: 12
      Data: 0
    - Name: 
      Entry: 13
      Data: 
    - Name: 
      Entry: 8
      Data: 
  <itemName>k__BackingField: Axe
  <sprite>k__BackingField: {fileID: 0}
  <itemPickupPrefab>k__BackingField: {fileID: 8914018352332440097, guid: b8dc2cf33fb514b968b7d2eef886faa8,
    type: 3}
  <firstTimePickupTutorial>k__BackingField: Sharp but brittle!
