%YAML 1.1
%TAG !u! tag:unity3d.com,2011:
--- !u!114 &11400000
MonoBehaviour:
  m_ObjectHideFlags: 0
  m_CorrespondingSourceObject: {fileID: 0}
  m_PrefabInstance: {fileID: 0}
  m_PrefabAsset: {fileID: 0}
  m_GameObject: {fileID: 0}
  m_Enabled: 1
  m_EditorHideFlags: 0
  m_Script: {fileID: 11500000, guid: b1f6cc98fe0d4ebba7b2b8da43df7207, type: 3}
  m_Name: Lit Torch
  m_EditorClassIdentifier: 
  serializationData:
    SerializedFormat: 2
    SerializedBytes: 
    ReferencedUnityObjects: []
    SerializedBytesString: 
    Prefab: {fileID: 0}
    PrefabModificationsReferencedUnityObjects: []
    PrefabModifications: []
    SerializationNodes:
    - Name: onPlayerDeathConsequences
      Entry: 7
      Data: 0|System.Collections.Generic.List`1[[roots.ItemRelated.InteractConsequences,
        Roots]], mscorlib
    - Name: 
      Entry: 12
      Data: 1
    - Name: 
      Entry: 7
      Data: 1|roots.ItemRelated.Consequences.DestroyCurrentPlayerItemConsequence,
        Roots
    - Name: 
      Entry: 8
      Data: 
    - Name: 
      Entry: 13
      Data: 
    - Name: 
      Entry: 8
      Data: 
  <itemName>k__BackingField: Lit Torch
  <sprite>k__BackingField: {fileID: 0}
  <itemPickupPrefab>k__BackingField: {fileID: 8813299103096884535, guid: 5a45c8a75187a48d28f32047c19bc4a9,
    type: 3}
  <firstTimePickupTutorial>k__BackingField: The stick is burning up fast!
